<svg xmlns="http://www.w3.org/2000/svg" width="100" height="100" viewBox="0 0 100 100">
    <g data-name="그룹 737">
        <path data-name="사각형 435" style="fill:none" d="M0 0h100v100H0z"/>
        <g data-name="그룹 729">
            <path data-name="패스 269" d="M379.431 544.61h.734c0-.132-.009-.257-.01-.392a7.547 7.547 0 0 1-.724.392z" style="fill:#16bed8" transform="translate(-342.853 -514.947)"/>
            <path data-name="패스 270" d="M380.165 544.61h.534c.158-.359.307-.722.451-1.088a7.578 7.578 0 0 1-.995.7c.001.131.007.256.01.388z" style="fill:#3665c1" transform="translate(-342.853 -514.947)"/>
            <path data-name="패스 271" d="m74.625 38.823-.08.013-.033.006-.053.011h-.021l-.046.012-.13.044-.023.008h-.007l.03.083.075.277-.188-.305-.01-.021-1.024 1.185a1.6 1.6 0 0 0-.045.543 1.675 1.675 0 0 0 .045.226v.128h-.189l.189.2v42.3a2.436 2.436 0 0 1-4.872 0V61.589a1.64 1.64 0 0 0-.024-.281l-.1-.621a1.7 1.7 0 0 0-3.385.281v22.565a2.429 2.429 0 0 1-4.742.747 5.758 5.758 0 0 0 .054-.747V36.995c-1.231.212-2.429.442-3.592.674v45.864a5.762 5.762 0 0 0 .054.748 2.43 2.43 0 0 1-4.743-.748V61.589a1.745 1.745 0 0 0-.023-.281l-.1-.621a1.7 1.7 0 0 0-1.679-1.423l-.143.005a1.715 1.715 0 0 0-1.562 1.7v22.564a2.43 2.43 0 0 1-4.743.75 5.8 5.8 0 0 0 .054-.75V39.315a6.55 6.55 0 0 1-3.592-1.474v45.692a5.8 5.8 0 0 0 .054.749 2.43 2.43 0 0 1-4.743-.749V60.968a1.7 1.7 0 0 0-3.384-.281l-.1.62a1.766 1.766 0 0 0-.023.282v21.944a2.436 2.436 0 0 1-4.872 0V42.444a28.9 28.9 0 0 1-3.408 1.87v39.219A5.842 5.842 0 0 0 33.537 87.6a5.829 5.829 0 0 0 8.24.137 5.829 5.829 0 0 0 8.24-.137 5.831 5.831 0 0 0 8.241.137 5.829 5.829 0 0 0 8.24-.137 5.842 5.842 0 0 0 10.036-4.067v-41.6a26.181 26.181 0 0 0 9.116-3.963 182.945 182.945 0 0 0-4.878-.938 19.979 19.979 0 0 1-6.147 1.791z"/>
            <path data-name="패스 272" d="M369.744 555.986v-.124a1.776 1.776 0 0 0 .045-.231 1.523 1.523 0 0 0-.045-.5l-.355-.7c-.031-.037-.056-.076-.09-.112l-.008-.008-.015-.016-.008-.008-.042-.043c-.015-.014-.041-.04-.063-.058l-.006-.006q-.045-.041-.093-.078a.5.5 0 0 0-.053-.039c-.006 0-.014-.006-.02-.01a1.64 1.64 0 0 0-.317-.166 1.687 1.687 0 0 0-.1-.035l-.069-.018-.052-.017h-.017l-.1-.021h-.009l-.085-.012c-13.114-1.649-19.059-14.919-20.371-21.7a2.592 2.592 0 1 1 5.089-.983c2.686 13.9 12.525 16.461 14.717 16.862l.094.013c.073.013.135.023.185.03l.432.026h10.548q.688-1.131 1.273-2.328c-.021-.343-.028-.712-.036-1.08h-.734a7.547 7.547 0 0 0 .724-.392c0-.094-.008-.176-.008-.271a32.957 32.957 0 0 1 1.873-10.964 7.443 7.443 0 1 0-8.707 11.627h-4.942c-1.09-.174-9.706-1.927-12.072-14.171a6 6 0 1 0-11.78 2.274 31.52 31.52 0 0 0 10.2 18.311 26.978 26.978 0 0 0 11.616 5.854v2.383a28.9 28.9 0 0 0 3.408-1.87v-1.209m2.587-18.357a4.041 4.041 0 1 1 4.041 4.041 4.046 4.046 0 0 1-4.048-4.055z" style="fill:#16bed8" transform="translate(-342.853 -514.947)"/>
            <path data-name="패스 273" d="M383.1 534.64a28.854 28.854 0 0 1-1.945 8.882 7.4 7.4 0 0 0 1.945-8.882z" style="fill:#3665c1" transform="translate(-342.853 -514.947)"/>
            <path data-name="패스 274" d="M440.264 528.216a6 6 0 0 0-10.858 2.222c-2.366 12.245-10.982 14-12.072 14.172h-4.942a7.449 7.449 0 1 0-6.118 0h-10.363a7.448 7.448 0 1 0-6.118 0H380.7c-.16.363-.324.724-.5 1.08q-.586 1.2-1.273 2.328h3.888v4.77a6.55 6.55 0 0 0 3.592 1.474v-6.244H399.3v4.6c1.163-.232 2.361-.462 3.592-.674v-3.924h14.575a1.024 1.024 0 0 0 .139-.013l.105-.006a16.127 16.127 0 0 0 6.794-2.853c2.925-2.086 6.731-6.22 8.245-14.062a2.592 2.592 0 0 1 5.09.982c-1.086 5.62-5.356 15.681-14.234 19.911 1.691.3 3.321.622 4.878.938a27.484 27.484 0 0 0 2.5-1.891 31.527 31.527 0 0 0 10.2-18.311 5.954 5.954 0 0 0-.92-4.499zm-47.412 13.65a4.041 4.041 0 1 1 4.041-4.041 4.046 4.046 0 0 1-4.041 4.041zm16.481 0a4.041 4.041 0 1 1 4.041-4.041 4.046 4.046 0 0 1-4.041 4.041z" style="fill:#3665c1" transform="translate(-342.853 -514.947)"/>
            <path data-name="패스 275" d="M380.2 545.69c.174-.356.338-.717.5-1.08h-.534c.007.368.014.737.034 1.08z" style="fill:#3665c1" transform="translate(-342.853 -514.947)"/>
            <path data-name="패스 276" d="M380.147 543.947c0 .095.007.177.008.271a7.578 7.578 0 0 0 .995-.7 28.854 28.854 0 0 0 1.945-8.882 7.444 7.444 0 0 0-1.075-1.657 32.957 32.957 0 0 0-1.873 10.968z" style="fill:#3665c1" transform="translate(-342.853 -514.947)"/>
        </g>
    </g>
</svg>
