<svg xmlns="http://www.w3.org/2000/svg" width="310" height="250" viewBox="0 0 310 250">
    <defs>
        <linearGradient id="hwcrbfm53b" x1=".109" y1=".77" x2=".855" y2=".194" gradientUnits="objectBoundingBox">
            <stop offset="0" stop-color="#fff"/>
            <stop offset="1" stop-color="#3f45df" stop-opacity=".22"/>
        </linearGradient>
        <linearGradient id="jel055jm4c" x1=".109" y1=".77" x2=".855" y2=".194" gradientUnits="objectBoundingBox">
            <stop offset="0" stop-color="#8aa5ff"/>
            <stop offset="1" stop-color="#cfcfcf" stop-opacity=".22"/>
        </linearGradient>
        <linearGradient id="q6mgipq6fd" x1=".109" y1=".77" x2=".855" y2=".194" gradientUnits="objectBoundingBox">
            <stop offset="0" stop-color="#fff"/>
            <stop offset="1" stop-color="#335cff" stop-opacity=".22"/>
        </linearGradient>
        <clipPath id="y9waxh2nva">
            <path data-name="사각형 464" d="M0 0h310a10 10 0 0 1 10 0v250H0V10A10 10 0 0 1 0 0z" transform="translate(589 2318)" style="fill:#f9fafb"/>
        </clipPath>
    </defs>
    <g data-name="그룹 786">
        <path data-name="사각형 464" d="M0 0h310a10 10 0 0 1 10 0v250H0V10A10 10 0 0 1 0 0z" style="fill:#f9fafb"/>
        <g data-name="마스크 그룹 5" transform="translate(-589 -2318)" style="clip-path:url(#y9waxh2nva)">
            <circle data-name="타원 40" cx="222.5" cy="222.5" r="222.5" transform="translate(638 2096)" style="opacity:.4;fill:url(#hwcrbfm53b)"/>
            <circle data-name="타원 43" cx="138" cy="138" r="138" transform="translate(743.321 2182.929)" style="opacity:.4;fill:url(#hwcrbfm53b)"/>
            <circle data-name="타원 41" cx="154.5" cy="154.5" r="154.5" transform="rotate(69.03 -1218.126 1878.943)" style="opacity:.19;fill:url(#jel055jm4c)"/>
            <circle data-name="타원 42" cx="176.239" cy="176.239" r="176.239" transform="rotate(69.03 -1231.779 1657.938)" style="opacity:.34;fill:url(#q6mgipq6fd)"/>
        </g>
        <g data-name="그룹 779">
            <g data-name="그룹 767">
                <path data-name="패스 377" d="M196.663 212.253h-4.2v4.079h4.2zm2.205-2.178v4.079h4.2v-4.079zm-8.728 4.236h-4.2v4.07h4.2zm-5.261 1.03h-4.2v4.076h4.2zm-5.076 9.2h4.2v-4.073h-3.96v-4.079h-4.194v4.079h3.958zm9.035 3.59h4.2v-4.076h-4.2zm6.053-1.052h4.2v-4.081h-4.2zm-6.614 6.02h4.2v-4.076h-4.2zm4.846-.406h4.191v-4.076h-4.191zm2.734-14.581h-4.2v4.076h4.2zm-10.972 5.619h4.193v-4.076h-4.193zm-1.136 5.212h4.2v-4.08h-4.2zm13.908-7.669h4.2v-4.079h-4.2zm-14.146 3.993h-4.2v-4.073h-4.206v-4.076l-20.981.014.011 16.306 12.65-.008.034 49.326 16.734-.011-.033-49.326h4.2v-4.076h-4.2z" transform="translate(-26.195 -121.438)" style="fill:#f8f8f8"/>
                <path data-name="패스 378" d="m121.79 264.3 10.8-.008c6.914 0 8.793-1.685 8.79-7.322l-.029-41.611 17.2-.011.026 38.842c.016 25.307-9.572 26.7-36.777 26.716z" transform="translate(-37.79 -119.544)" style="fill:#f8f8f8"/>
                <path data-name="패스 379" d="m214.8 215.263-24.565.016.043 65.6 17.2-.012-.012-17.96 7.168-.005c14.829-.009 23.617-9.9 23.608-24.328-.009-13.835-10.588-23.319-23.442-23.311zm-7.349 31.611-.011-15.592h6.379a7.033 7.033 0 0 1 7.222 7.308c.01 7.041-3.902 8.201-13.585 8.284z" transform="translate(-13.242 -119.576)" style="fill:#f8f8f8"/>
            </g>
        </g>
    </g>
</svg>

